---Infinite Kiaros Web site

Discussion
 --- View photography
 --- Like photography
 --- Comment photography
 --- Save Photography
 --- Book as Photographer

 --- Buy Packages
 --- Save free tips and quotes etc
 --- Media intense site

 ==========================================================================================
 Split the site into 2
*****Non-Auth Users********
--- Entry Page
      * Short Introduction
      * option to explore
      * option to sign up
--- Login/SignUp
      #Methods
        * Facebook
        * Gmail
        * Email
      #What Information do you need about your users
--- HomePage
      * Available times
          #Photography and training
      * Promotion
      * Sneak Peak
      * Testimonials
--- Photography Page
      * Packages Offered
      * Consultation
--- VideoGaraphy Page
      * Packages Offered
      * Consultation
--- About Page
--- Contact Page
      * Who to contact regarding Technical Issues
      * Who to Contact regarding info about the products you're offering
*****************************

*****Auth Users**************
--- Profile Page
      * Choosen Packages
      * Liked Content
      * Exercise plan
      * Diet Plan
      * other(Calander, )


Backend Services
*****Selecting Package*******
--- After choosing a package you get an email with payment details and reference number
--- Upload proof of payment
      !!Admin
        * Approve Payment
        * Email Users
